<?xml version="1.0" encoding="utf-8"?>
<!-- Generator: Adobe Illustrator 20.1.0, SVG Export Plug-In . SVG Version: 6.00 Build 0)  -->
<svg version="1.1" id="Capa_1" xmlns="http://www.w3.org/2000/svg" xmlns:xlink="http://www.w3.org/1999/xlink" x="0px" y="0px"
	 viewBox="0 0 750 200" style="enable-background:new 0 0 750 200;" xml:space="preserve">
<style type="text/css">
	.st0{fill:#811812;}
	.st1{fill:#C4191A;}
	.st2{enable-background:new    ;}
	.st3{fill:#AEE4B5;}
	.st4{fill:none;stroke:#000000;stroke-width:1.27;stroke-miterlimit:10;}
	.st5{fill:none;stroke:#000000;stroke-width:0.78;stroke-miterlimit:10;}
</style>
<title>level8</title>
<g id="Capa_2">
	<g id="Capa_1-2">
		<path class="st0" d="M7.5,158.3v-67l2,0.7v1.3l1.8,2.3c0.8,0.1,1.7,0.4,2.5,0.7c0.7,0.4,1.5,0.4,2.2,0.2c1.4-0.5,2.8-0.8,4.2-1
			c0.8,0.1,1.5,0.4,2.2,0.7c0,0,0.2,0.7,1.2-0.2s1.8-1.5,2.7-2.3s1.2-2,2.2-2.3s2-2.3,2.5-3s1.2-1.7,1.7-2.3c0.4-0.8,0.9-1.4,1.5-2
			c1-0.8,3.7-3.2,3.7-3.2c0.4-0.7,0.9-1.3,1.5-1.8c0.8-0.5,0.8-0.8,1.8-1.7c1.1-0.9,2.1-2,3-3.2c1-1.3,1.8-3,3.2-3.7
			c1.2-0.8,2.3-1.6,3.3-2.5c0.8-0.5,5.5-4.2,6-4.5c1-0.8,2.1-1.3,3.3-1.5c2.2-0.5,4.2-1.2,5.3-1.3s3.7,0,5.2,0s7.7,0,8.2-0.1
			c0.9-0.3,1.9-0.3,2.8,0c1.1,0.6,2.3,1,3.5,1.2c1,0,3.7,0.2,3.7,0.2c0.8-0.7,1.8-1.3,2.8-1.7c1.8-0.6,3.4-1.4,5-2.5
			c1.1-0.7,2.4-1.2,3.7-1.5c1-0.2,2-1.5,3.8-1.3s5.8,0.6,7.2,0c1.5-0.8,3.2-1.3,4.8-1.7c2.3-0.5,3.8,1,5.8,0
			c1.3-0.6,2.7-1.1,4.2-1.4c1.7-0.2,3.5-0.2,5.2,0c1.5,0.3,3-1,3.8-0.2c0.8,0.6,1.7,1.1,2.7,1.5c1,0.5,2.2,1.2,2.8,1.5
			c0.6,0.4,1.3,0.7,2,0.8c1.3,0.3,2.5,0.5,3.8,0.5c2.2,0,4.5,0.2,5.2,0.2s1-0.2,2.8-0.2s2.2-0.3,3.7,0.2c1.1,0.4,2.3,0.6,3.5,0.8
			c0,0,1.8,1,2.7,1.3c0.7,0.4,1.4,0.7,2.2,1c0.7,0.2,1.3,0.8,2.2,1s0.5,0.3,1.8,0.5c0.9,0.1,1.8,0.2,2.7,0.2c0.7,0,2.3-0.2,2.3-0.2
			c0.8-0.5,1.4-1.1,2-1.8c0.5-0.8,1-1.5,1.7-2.5s0.8-1.7,1.5-2.5s1.8-1.5,2.3-2.6c0.5-1.1,1.4-2,2.5-2.4c0.9-0.4,1.8-0.7,2.7-0.8
			c0.7-0.1,1.3-0.1,2,0l3.3-2.8l1.5-1.8l1.7-1.1c0,0,1.8,1.7,2.3,1.7h1.8c0.9-0.1,1.9,0.2,2.7,0.8c0.8,0.8,2,0.9,3,1.4
			s2,0.3,2.7,0.9s1.7,1.3,2.7,2.3s2,1.5,2.5,3s1,1,2,3.2c0.6,1.6,1.4,3.2,2.3,4.7c0.8,1.2,1.5,1.7,2,2.3c0.6,0.9,1.3,1.8,2.2,2.5
			c0.8,0.7,1.6,1.5,2.2,2.3c0.7,0.6,1.3,1.2,1.8,1.8c1,1.1,1.9,2.3,2.7,3.7c0.7,1.3,0.7,1.8,1.3,2.5c0.7,0.6,1.4,1.2,2,1.8
			c0.8,1,2,2.3,2.8,3.3s1.5,2,2,2.5c0.7,0.7,1.5,1.3,2.3,1.8c1,0.7,3,1.8,3,1.8c1,0.8,2.1,1.5,3.2,2.2c0.8,0.3,2.7,1.7,3.7,1.8
			s1.8,0.7,3.2,0.8s0.5,1,1.3,0.2s-0.2-1.2,2.7-0.8c2.8,0.3,1,0.2,2.8,0.3c1.2,0.1,2.5,0.4,3.7,0.7c0.9,0.2,1.9,0.3,2.8,0.2
			c1.4-0.3,2.8-0.7,4.2-1.3c0.7-0.5,2.2-1,3-2s2.5-3.2,2.5-3.2s3.5-5.2,4.7-6.7c1-1.3,2.3-2.4,3.7-3.3c1.8-1.1,3.8-1.9,5.8-2.3
			c1,0,3.3-1.7,3.3-1.7l1.7-0.8c0.9-0.3,1.7-1,2.2-1.8c0.5-1,1.3-1.9,2.2-2.7c1.2-1,2.3-2.3,3-2.8c1.1-1,2.3-1.8,3.5-2.7
			c0.5-0.2,0.8-0.7,2-1.3s1.7-1.3,3-1.7c1.1-0.4,2.3-0.6,3.5-0.8c1.3-0.2,2.5-0.8,4.7,0.2c1.3,0.6,2.7,1.1,4.2,1.5
			c1.2,0.3,1.2,0.7,3.2,1.5s4,1.8,5,2.3c1.3,0.5,2.5,1.2,3.7,1.8c0.8,0.5,1.5,1.1,2.1,1.7c0.7,0.7,2.7,1,3.2,1.5
			c0.5,0.5,1.2,1,1.8,1.3c1.2,0.8,2.3,1.7,3.3,2.7c1,0.8,1.7,1,2.5,1.8c0.9,0.9,1.9,1.6,3,2.2c1.2,0.7,2.3,1,3.8,1.8
			s0.5-0.2,1.5,0.8c1.1,0.9,2.3,1.7,3.7,2.3c1.1,0.7,2.3,1.3,3.5,1.8c1.1,0.6,2.3,1.1,3.5,1.3c1.7,0.2,3.5,0.3,4.5,0.5
			s2.2,0.8,3.5,0.5s3-3.8,3-3.8c0.9-0.2,1.9-0.4,2.8-0.5c1.7-0.2,2.3-0.7,3.7-0.7c1.1,0,2.2,0.1,3.3,0.3c0.8,0.2,1.3,0.2,2.2,0.3
			s-0.7,0,0.8,0.2c1,0.2,2.1,0,3-0.5c0.7-0.6,1.5-1,2.4-1.3c1.7-0.7,2.2-0.5,3.5-1c1.1-0.4,2.2-0.8,3.3-1c1.3-0.2,2.7-0.3,4-0.2
			c1.4,0.2,2.7,0.5,4,0.8c0.5-0.1,1.1,0.2,1.3,0.7c0.5,0.8,1.4,1.3,2.4,1.5c1,0,1.9,0.3,2.7,0.8c1.2,0.7,2.5,1.3,3.8,1.7
			c0.7,0.2,0.7,0.8,1.8,0.3c1.1-0.4,2-1,2.8-1.8c0.5-0.7,0.8-1.7,1.5-1.7c0.9-0.1,1.9-0.1,2.8,0.2c0.7,0.2,1.3,0.6,1.8,1.2
			c0.8,0.8,0.7,1.8,2.5,1.5c1.5-0.2,3-0.3,4.5-0.3c0.9-0.1,1.9-0.1,2.8,0c0.7,0.2,0.3,1.5,2.3,0c1.1-1,2.2-1.8,3.5-2.5
			c1.3-0.7,2-1.2,3.2-1.2c1.1,0,2.1,0.1,3.2,0.3c0.9,0.2,1.8,0.6,2.7,1c0.8,0.3,3,0.8,3.5,1c0.6,0.1,1.2,0.3,1.8,0.5
			c0.7,0.5,1.4,1.1,2,1.7c0.8,0.7,2.3,1.3,3,2l1.3,1.3l2,2.3l0.8,1.2c0,0,1.2,1.5,1.8,2.2l2.2,2.2l1.3,1.3l1.5,1.7
			c0.6,0.6,1.1,1.3,1.5,2c0.3,0.8,0.8,1.6,1.5,2.2c0.7,0.5,2.5,2.3,2.5,2.3c0.5,0.5,1,1,1.7,1.3c0.9,0.4,1.7,0.8,2.7,1
			c0.7,0.2,1.5,0.3,2.2,0.5c0.7,0.3,1.4,0.5,2.2,0.5c1.7,0.2,1.3-0.2,2.7,0.2s2.8,0.5,3.3,0.7s1.5,0.5,2.8,1s1.3,0.8,2.5,1.2
			s1.5,1.7,2,2.2c0.7,0.8,1.3,1.6,1.8,2.5l1.2,1.2c0,0,0.3,0.2,1.2-0.2c0.7-0.4,1.4-0.7,2.2-0.8c0.8,0,1.5,0.2,2.2,0.5
			c0.8,0.7,1.6,1.5,2.3,2.3c0.5,0.5,1.8,1.3,2.3,1.8c0.5,0.7,1.3,1.1,2.2,1c1.4-0.3,2.7-0.8,4-1.3c1.1-0.9,2.3-1.7,3.5-2.5
			c0.7-0.5,1.4-0.8,2.2-1c1.1-0.3,2.2-0.4,3.3-0.2c1.4,0.4,2.8,0.6,4.2,0.7c1.7,0,2.7-0.2,3.7-0.2s3-0.5,4-0.3
			c1.3,0.2,2.6,0.1,3.8-0.2c0.6-0.6,1.4-0.9,2.2-1c1.2-0.3,2.5-0.4,3.8-0.3c1.3,0.1,2.6-0.4,3.3-1.5c0.5-0.9,1.2-1.7,1.8-2.5
			c0,0,0.7-1,1.3-1.2s2.3-0.5,2.3-0.5c0.8,0.3,1.5,0.8,2,1.5c0.5,0.8,1.8,1.3,2.5,1.8s2.2,1.2,2.7,2.2c0.5,1.1,1.1,2.1,1.7,3.2
			c0.8,1.3,1.5,2.3,2,3.3c0.3,0.9,0.9,1.7,1.7,2.3c1.1,0.6,2.2,1.1,3.3,1.5c1.1,0.4,2.1,0.8,3.2,1.3c0.7,0.3,0.2-0.7,1.7,1.5
			c1.5,2.2,1.5,3.3,2,3.7c0.6,0.7,1.1,1.5,1.5,2.3c0.2,0.5,0.5,1,1,1.3c0.8,0.7,0.8,1.3,1.5,1.7s0.5,0.8,1.8,0.8h2.8
			c0,0,1.3-0.1,2.7-0.1c1.1,0.1,2.1,0.3,3.2,0.5c0.8,0.1,1.6,0.4,2.3,0.8c0.6,0.2,1.2,0.5,1.7,1c0.7,0.6,1.3,1.3,1.8,2
			c1,1,0.7,1,1.8,1.8s1.7,1.5,2.7,1.8s1.5,1,2.3,1.3s0.3,0.8,2,1c1.4,0.2,2.8,0.3,4.2,0.3c1.8,0,3.7,0.2,4.2,0.2
			c1.2-0.1,2.5,0,3.7,0.3c2.7,0.5,2.7,0.7,4.3,1c1,0.3,2.1,0.5,3.2,0.7c2.2-0.2,4.4-0.6,6.5-1.2c0.5-0.3-0.2-0.2,2.2-0.2
			s1.8,0.3,4,0.2l4.7-0.3c1.4-0.2,2.8-0.3,4.2-0.2c1.4,0.1,2.8,0,4.2-0.2c1.4,0,2.8,0.1,4.2,0.3c0.8,0.2,3.2,1.2,4,0.8
			c1-0.4,2.1-0.6,3.1-0.7c0.8,0.1,1.7,0.3,2.5,0.6l2.5,1.1h1c0.8,0,1.7,0,2.5-0.3c0.8-0.4,1.5-0.8,2.2-1.3c0.8-0.6,1.8-0.9,2.8-0.8
			c1.2-0.1,2.4,0,3.5,0.3c1.5,0.3,2.7,0.6,3.2,0.8c0.8,0.2,1.6,0.5,2.3,0.9c1.5,0.7,1.3,0.8,2.7,1.3c1,0.4,2.1,0.7,3.2,0.8
			c1.7,0.4,3.4,0.5,5.2,0.3c1.5-0.2,3.5-0.3,5.3-0.5s2.8-0.3,4-0.5c1-0.3,2.1-0.4,3.2-0.2c1,0.3,2.1,0.4,3.2,0.2
			c1.3-0.2,2.6-0.2,3.8,0c0.9,0.2,1.8,0.3,2.7,0.2c1.2-0.3,2.4-0.7,3.5-1.2c0.9-0.6,1.9-1.1,3-1.3c1.5-0.3,2.8-0.4,3.8-0.6
			s2.7-0.3,2.7-0.3h1.3v11C742.5,158.3,7.5,157.3,7.5,158.3z"/>
		<path class="st1" d="M7.5,160.3v-67l2,0.7v1.3l1.8,2.3c0.8,0.1,1.7,0.4,2.5,0.7c0.7,0.4,1.5,0.4,2.2,0.2c1.4-0.5,2.8-0.8,4.2-1
			c0.8,0.1,1.5,0.4,2.2,0.7c0,0,0.2,0.7,1.2-0.2s1.8-1.5,2.7-2.3s1.2-2,2.2-2.3s2-2.3,2.5-3s1.2-1.7,1.7-2.3c0.4-0.8,0.9-1.4,1.5-2
			c1-0.8,3.7-3.2,3.7-3.2c0.4-0.7,0.9-1.3,1.5-1.8c0.8-0.5,0.8-0.8,1.8-1.7c1.1-0.9,2.1-2,3-3.2c1-1.3,1.8-3,3.2-3.7
			c1.2-0.8,2.3-1.6,3.3-2.5c0.8-0.5,5.5-4.2,6-4.5c1-0.8,2.1-1.3,3.3-1.5c2.2-0.5,4.2-1.2,5.3-1.3s3.7,0,5.2,0s7.7,0,8.2-0.1
			c0.9-0.3,1.9-0.3,2.8,0c1.1,0.6,2.3,1,3.5,1.2c1,0,3.7,0.2,3.7,0.2c0.8-0.7,1.8-1.3,2.8-1.7c1.8-0.6,3.4-1.4,5-2.5
			c1.1-0.7,2.4-1.2,3.7-1.5c1-0.2,2-1.5,3.8-1.3s5.8,0.6,7.2,0c1.5-0.8,3.2-1.3,4.8-1.7c2.3-0.5,3.8,1,5.8,0
			c1.3-0.6,2.7-1.1,4.2-1.4c1.7-0.2,3.5-0.2,5.2,0c1.5,0.3,3-1,3.8-0.2c0.8,0.6,1.7,1.1,2.7,1.5c1,0.5,2.2,1.2,2.8,1.5
			c0.6,0.4,1.3,0.7,2,0.8c1.3,0.3,2.5,0.5,3.8,0.5c2.2,0,4.5,0.2,5.2,0.2s1-0.2,2.8-0.2s2.2-0.3,3.7,0.2c1.1,0.4,2.3,0.6,3.5,0.8
			c0,0,1.8,1,2.7,1.3c0.7,0.4,1.4,0.7,2.2,1c0.7,0.2,1.3,0.8,2.2,1s0.5,0.3,1.8,0.5c0.9,0.1,1.8,0.2,2.7,0.2c0.7,0,2.3-0.2,2.3-0.2
			c0.8-0.5,1.4-1.1,2-1.8c0.5-0.8,1-1.5,1.7-2.5s0.8-1.7,1.5-2.5s1.8-1.5,2.3-2.6c0.5-1.1,1.4-2,2.5-2.4c0.9-0.4,1.8-0.7,2.7-0.8
			c0.7-0.1,1.3-0.1,2,0l3.3-2.8l1.5-1.8l1.7-1.1c0,0,1.8,1.7,2.3,1.7h1.8c0.9-0.1,1.9,0.2,2.7,0.8c0.8,0.8,2,0.9,3,1.4
			s2,0.3,2.7,0.9s1.7,1.3,2.7,2.3s2,1.5,2.5,3s1,1,2,3.2c0.6,1.6,1.4,3.2,2.3,4.7c0.8,1.2,1.5,1.7,2,2.3c0.6,0.9,1.3,1.8,2.2,2.5
			c0.8,0.7,1.6,1.5,2.2,2.3c0.7,0.6,1.3,1.2,1.8,1.8c1,1.1,1.9,2.3,2.7,3.7c0.7,1.3,0.7,1.8,1.3,2.5c0.7,0.6,1.4,1.2,2,1.8
			c0.8,1,2,2.3,2.8,3.3s1.5,2,2,2.5c0.7,0.7,1.5,1.3,2.3,1.8c1,0.7,3,1.8,3,1.8c1,0.8,2.1,1.5,3.2,2.2c0.8,0.3,2.7,1.7,3.7,1.8
			s1.8,0.7,3.2,0.8s0.5,1,1.3,0.2s-0.2-1.2,2.7-0.8c2.8,0.3,1,0.2,2.8,0.3c1.2,0.1,2.5,0.4,3.7,0.7c0.9,0.2,1.9,0.3,2.8,0.2
			c1.4-0.3,2.8-0.7,4.2-1.3c0.7-0.5,2.2-1,3-2s2.5-3.2,2.5-3.2s3.5-5.2,4.7-6.7c1-1.3,2.3-2.4,3.7-3.3c1.8-1.1,3.8-1.9,5.8-2.3
			c1,0,3.3-1.7,3.3-1.7l1.7-0.8c0.9-0.3,1.7-1,2.2-1.8c0.5-1,1.3-1.9,2.2-2.7c1.2-1,2.3-2.3,3-2.8c1.1-1,2.3-1.8,3.5-2.7
			c0.5-0.2,0.8-0.7,2-1.3s1.7-1.3,3-1.7c1.1-0.4,2.3-0.6,3.5-0.8c1.3-0.2,2.5-0.8,4.7,0.2c1.3,0.6,2.7,1.1,4.2,1.5
			c1.2,0.3,1.2,0.7,3.2,1.5s4,1.8,5,2.3c1.3,0.5,2.5,1.2,3.7,1.8c0.8,0.5,1.5,1.1,2.1,1.7c0.7,0.7,2.7,1,3.2,1.5
			c0.5,0.5,1.2,1,1.8,1.3c1.2,0.8,2.3,1.7,3.3,2.7c1,0.8,1.7,1,2.5,1.8c0.9,0.9,1.9,1.6,3,2.2c1.2,0.7,2.3,1,3.8,1.8
			s0.5-0.2,1.5,0.8c1.1,0.9,2.3,1.7,3.7,2.3c1.1,0.7,2.3,1.3,3.5,1.8c1.1,0.6,2.3,1.1,3.5,1.3c1.7,0.2,3.5,0.3,4.5,0.5
			s2.2,0.8,3.5,0.5s3-3.8,3-3.8c0.9-0.2,1.9-0.4,2.8-0.5c1.7-0.2,2.3-0.7,3.7-0.7c1.1,0,2.2,0.1,3.3,0.3c0.8,0.2,1.3,0.2,2.2,0.3
			s-0.7,0,0.8,0.2c1,0.2,2.1,0,3-0.5c0.7-0.6,1.5-1,2.4-1.3c1.7-0.7,2.2-0.5,3.5-1c1.1-0.4,2.2-0.8,3.3-1c1.3-0.2,2.7-0.3,4-0.2
			c1.4,0.2,2.7,0.5,4,0.8c0.5-0.1,1.1,0.2,1.3,0.7c0.5,0.8,1.4,1.3,2.4,1.5c1,0,1.9,0.3,2.7,0.8c1.2,0.7,2.5,1.3,3.8,1.7
			c0.7,0.2,0.7,0.8,1.8,0.3c1.1-0.4,2-1,2.8-1.8c0.5-0.7,0.8-1.7,1.5-1.7c0.9-0.1,1.9-0.1,2.8,0.2c0.7,0.2,1.3,0.6,1.8,1.2
			c0.8,0.8,0.7,1.8,2.5,1.5c1.5-0.2,3-0.3,4.5-0.3c0.9-0.1,1.9-0.1,2.8,0c0.7,0.2,0.3,1.5,2.3,0c1.1-1,2.2-1.8,3.5-2.5
			c1.3-0.7,2-1.2,3.2-1.2c1.1,0,2.1,0.1,3.2,0.3c0.9,0.2,1.8,0.6,2.7,1c0.8,0.3,3,0.8,3.5,1c0.6,0.1,1.2,0.3,1.8,0.5
			c0.7,0.5,1.4,1.1,2,1.7c0.8,0.7,2.3,1.3,3,2l1.3,1.3l2,2.3l0.8,1.2c0,0,1.2,1.5,1.8,2.2l2.2,2.2l1.3,1.3l1.5,1.7
			c0.6,0.6,1.1,1.3,1.5,2c0.3,0.8,0.8,1.6,1.5,2.2c0.7,0.5,2.5,2.3,2.5,2.3c0.5,0.5,1,1,1.7,1.3c0.9,0.4,1.7,0.8,2.7,1
			c0.7,0.2,1.5,0.3,2.2,0.5c0.7,0.3,1.4,0.5,2.2,0.5c1.7,0.2,1.3-0.2,2.7,0.2s2.8,0.5,3.3,0.7s1.5,0.5,2.8,1s1.3,0.8,2.5,1.2
			s1.5,1.7,2,2.2c0.7,0.8,1.3,1.6,1.8,2.5l1.2,1.2c0,0,0.3,0.2,1.2-0.2c0.7-0.4,1.4-0.7,2.2-0.8c0.8,0,1.5,0.2,2.2,0.5
			c0.8,0.7,1.6,1.5,2.3,2.3c0.5,0.5,1.8,1.3,2.3,1.8c0.5,0.7,1.3,1.1,2.2,1c1.4-0.3,2.7-0.8,4-1.3c1.1-0.9,2.3-1.7,3.5-2.5
			c0.7-0.5,1.4-0.8,2.2-1c1.1-0.3,2.2-0.4,3.3-0.2c1.4,0.4,2.8,0.6,4.2,0.7c1.7,0,2.7-0.2,3.7-0.2s3-0.5,4-0.3
			c1.3,0.2,2.6,0.1,3.8-0.2c0.6-0.6,1.4-0.9,2.2-1c1.2-0.3,2.5-0.4,3.8-0.3c1.3,0.1,2.6-0.4,3.3-1.5c0.5-0.9,1.2-1.7,1.8-2.5
			c0,0,0.7-1,1.3-1.2s2.3-0.5,2.3-0.5c0.8,0.3,1.5,0.8,2,1.5c0.5,0.8,1.8,1.3,2.5,1.8s2.2,1.2,2.7,2.2c0.5,1.1,1.1,2.1,1.7,3.2
			c0.8,1.3,1.5,2.3,2,3.3c0.3,0.9,0.9,1.7,1.7,2.3c1.1,0.6,2.2,1.1,3.3,1.5c1.1,0.4,2.1,0.8,3.2,1.3c0.7,0.3,0.2-0.7,1.7,1.5
			c1.5,2.2,1.5,3.3,2,3.7c0.6,0.7,1.1,1.5,1.5,2.3c0.2,0.5,0.5,1,1,1.3c0.8,0.7,0.8,1.3,1.5,1.7s0.5,0.8,1.8,0.8h2.8
			c0,0,1.3-0.1,2.7-0.1c1.1,0.1,2.1,0.3,3.2,0.5c0.8,0.1,1.6,0.4,2.3,0.8c0.6,0.2,1.2,0.5,1.7,1c0.7,0.6,1.3,1.3,1.8,2
			c1,1,0.7,1,1.8,1.8s1.7,1.5,2.7,1.8s1.5,1,2.3,1.3s0.3,0.8,2,1c1.4,0.2,2.8,0.3,4.2,0.3c1.8,0,3.7,0.2,4.2,0.2
			c1.2-0.1,2.5,0,3.7,0.3c2.7,0.5,2.7,0.7,4.3,1c1,0.3,2.1,0.5,3.2,0.7c2.2-0.2,4.4-0.6,6.5-1.2c0.5-0.3-0.2-0.2,2.2-0.2
			s1.8,0.3,4,0.2l4.7-0.3c1.4-0.2,2.8-0.3,4.2-0.2c1.4,0.1,2.8,0,4.2-0.2c1.4,0,2.8,0.1,4.2,0.3c0.8,0.2,3.2,1.2,4,0.8
			c1-0.4,2.1-0.6,3.1-0.7c0.8,0.1,1.7,0.3,2.5,0.6l2.5,1.1h1c0.8,0,1.7,0,2.5-0.3c0.8-0.4,1.5-0.8,2.2-1.3c0.8-0.6,1.8-0.9,2.8-0.8
			c1.2-0.1,2.4,0,3.5,0.3c1.5,0.3,2.7,0.6,3.2,0.8c0.8,0.2,1.6,0.5,2.3,0.9c1.5,0.7,1.3,0.8,2.7,1.3c1,0.4,2.1,0.7,3.2,0.8
			c1.7,0.4,3.4,0.5,5.2,0.3c1.5-0.2,3.5-0.3,5.3-0.5s2.8-0.3,4-0.5c1-0.3,2.1-0.4,3.2-0.2c1,0.3,2.1,0.4,3.2,0.2
			c1.3-0.2,2.6-0.2,3.8,0c0.9,0.2,1.8,0.3,2.7,0.2c1.2-0.3,2.4-0.7,3.5-1.2c0.9-0.6,1.9-1.1,3-1.3c1.5-0.3,2.8-0.4,3.8-0.6
			s2.7-0.3,2.7-0.3h1.3v11C742.5,160.3,7.5,159.3,7.5,160.3z"/>
	</g>
</g>
<g class="st2">
	<path class="st3" d="M30.2,38.9c0.5,0.4,0.8,1,0.8,1.8c0,0.4-0.1,0.8-0.3,1.1c-0.2,0.3-0.4,0.5-0.7,0.7c-0.3,0.1-0.5,0.2-0.7,0.2v0
		c0.2,0,0.5,0.1,0.8,0.2c0.3,0.1,0.5,0.3,0.7,0.6c0.2,0.3,0.3,0.7,0.3,1.1c0,0.5-0.1,0.9-0.4,1.3c-0.3,0.4-0.7,0.7-1.2,0.9
		c-0.5,0.2-1.1,0.3-1.7,0.3c-0.9,0-1.7-0.2-2.2-0.5c-0.6-0.3-0.9-0.9-1.2-1.6l2-0.9c0,0.5,0.2,0.8,0.4,1c0.2,0.2,0.5,0.3,0.9,0.3
		c0.4,0,0.7-0.1,0.9-0.3s0.3-0.4,0.3-0.7c0-0.3-0.1-0.6-0.3-0.7s-0.5-0.2-1-0.2h-0.5V42h0.4c0.4,0,0.7-0.1,0.9-0.3s0.3-0.4,0.3-0.8
		c0-0.3-0.1-0.6-0.3-0.7s-0.4-0.3-0.7-0.3c-0.7,0-1.1,0.4-1.2,1.2l-2-0.7c0.1-0.8,0.5-1.3,1.1-1.7c0.6-0.4,1.3-0.5,2.2-0.5
		C28.9,38.2,29.6,38.4,30.2,38.9z"/>
	<path class="st3" d="M37.6,41.7c0.4,0.2,0.7,0.5,0.9,0.9c0.2,0.4,0.3,0.8,0.3,1.3c0,0.7-0.1,1.2-0.4,1.7c-0.3,0.5-0.7,0.8-1.2,1
		c-0.5,0.2-1.1,0.3-1.7,0.3c-0.8,0-1.4-0.1-2-0.4c-0.5-0.3-1-0.7-1.4-1.3l2-1.1c0.1,0.4,0.2,0.7,0.4,0.9s0.5,0.3,1,0.3
		c0.4,0,0.7-0.1,1-0.3c0.2-0.2,0.4-0.5,0.4-0.9c0-0.4-0.1-0.7-0.3-0.9s-0.5-0.3-1-0.3c-0.6,0-1.1,0.2-1.4,0.5l-1.7-0.2l0.5-4.8h5.4
		v1.7h-3.7l-0.2,1.6c0,0.1,0,0.3-0.1,0.3h0c0.2-0.2,0.4-0.3,0.7-0.4c0.3-0.1,0.7-0.2,1-0.2C36.7,41.4,37.2,41.5,37.6,41.7z"/>
	<path class="st3" d="M45.8,38.9c0.6,0.4,0.9,1,0.9,1.8c0,0.4-0.1,0.8-0.4,1.2c-0.2,0.3-0.6,0.6-1,0.7v0c0.5,0.2,0.9,0.4,1.2,0.8
		c0.3,0.4,0.4,0.8,0.4,1.3c0,0.7-0.3,1.3-0.9,1.8c-0.6,0.4-1.5,0.6-2.6,0.6c-1.1,0-1.9-0.2-2.5-0.6s-0.9-1-0.9-1.8
		c0-0.5,0.1-1,0.4-1.3s0.7-0.6,1.2-0.8v0c-0.4-0.2-0.8-0.4-1-0.7c-0.2-0.3-0.4-0.7-0.4-1.2c0-0.7,0.3-1.3,0.9-1.8
		c0.6-0.4,1.4-0.6,2.3-0.6C44.4,38.2,45.2,38.5,45.8,38.9z M44.4,45.1c0.2-0.2,0.4-0.5,0.4-0.8c0-0.3-0.1-0.6-0.4-0.8
		s-0.6-0.3-1-0.3c-0.4,0-0.7,0.1-1,0.3s-0.4,0.4-0.4,0.8c0,0.3,0.1,0.6,0.4,0.8c0.2,0.2,0.6,0.3,1,0.3
		C43.8,45.4,44.1,45.3,44.4,45.1z M42.6,40.1c-0.2,0.2-0.3,0.4-0.3,0.7c0,0.3,0.1,0.5,0.3,0.7c0.2,0.2,0.5,0.3,0.8,0.3
		c0.4,0,0.6-0.1,0.8-0.3c0.2-0.2,0.3-0.4,0.3-0.7c0-0.3-0.1-0.6-0.3-0.7c-0.2-0.2-0.5-0.3-0.8-0.3S42.8,40,42.6,40.1z"/>
	<path class="st3" d="M58.3,40.9c0.4,0.4,0.6,1,0.6,1.7v4.3h-2.2v-3.8c0-0.7-0.3-1.1-0.9-1.1c-0.3,0-0.6,0.1-0.8,0.4
		c-0.2,0.3-0.3,0.6-0.3,1.1v3.5h-2.2v-3.8c0-0.7-0.3-1.1-0.9-1.1c-0.3,0-0.6,0.1-0.8,0.4c-0.2,0.3-0.3,0.6-0.3,1.1v3.4h-2.2v-6.5h2
		l0.1,1.2c0.2-0.5,0.5-0.8,0.9-1c0.4-0.2,0.8-0.4,1.3-0.4c0.5,0,0.9,0.1,1.3,0.3c0.4,0.2,0.6,0.6,0.8,1c0.2-0.4,0.5-0.7,0.9-1
		s0.8-0.3,1.3-0.3C57.4,40.3,57.9,40.5,58.3,40.9z"/>
</g>
<circle cx="8.8" cy="89.3" r="2.5"/>
<polyline class="st4" points="8.8,89.3 8.8,42.7 19.9,42.7 "/>
<circle cx="8.8" cy="159.6" r="2.5"/>
<polyline class="st5" points="19.9,177.5 8.8,177.5 8.8,159.6 "/>
<g class="st2">
	<path class="st3" d="M29.9,178.2h-4.8v-1.8h4.8V178.2z"/>
</g>
<g class="st2">
	<path class="st3" d="M35.2,172.2v8.6H33v-6.4c-0.7,0.6-1.3,1-2,1.1l-0.2-1.8c0.4-0.1,0.9-0.2,1.5-0.5c0.5-0.3,0.9-0.6,1.1-0.9H35.2
		z"/>
</g>
<g class="st2">
	<path class="st3" d="M43.8,172.2v1.6c-1,1-1.7,2-2.2,3.2c-0.4,1.1-0.6,2.4-0.6,3.8h-2.2c0-1.3,0.2-2.5,0.7-3.6s1.2-2.2,2.2-3.2
		h-4.9v-1.8H43.8z"/>
</g>
<g class="st2">
	<path class="st3" d="M45.6,178.9c0.2,0.2,0.3,0.5,0.3,0.9c0,0.4-0.1,0.6-0.3,0.9s-0.5,0.3-1,0.3c-0.4,0-0.7-0.1-1-0.3
		c-0.2-0.2-0.3-0.5-0.3-0.9c0-0.4,0.1-0.7,0.3-0.9c0.2-0.2,0.5-0.3,1-0.3C45,178.6,45.3,178.7,45.6,178.9z"/>
</g>
<g class="st2">
	<path class="st3" d="M53.8,174l-1.8,0.9c-0.2-0.7-0.6-1-1.3-1c-0.5,0-0.9,0.2-1.2,0.7c-0.3,0.5-0.5,1.1-0.5,1.8v0.2h0
		c0.1-0.4,0.4-0.6,0.8-0.8c0.4-0.2,0.8-0.3,1.3-0.3c0.5,0,1,0.1,1.4,0.3c0.4,0.2,0.8,0.5,1,0.9c0.2,0.4,0.4,0.9,0.4,1.4
		c0,0.9-0.3,1.6-0.9,2.1s-1.4,0.8-2.4,0.8c-1.2,0-2-0.4-2.7-1.1c-0.6-0.8-0.9-1.9-0.9-3.3c0-1,0.2-1.8,0.5-2.5
		c0.3-0.7,0.8-1.2,1.3-1.5c0.6-0.3,1.2-0.5,1.9-0.5C52.4,172.1,53.4,172.7,53.8,174z M49.8,177.3c-0.2,0.2-0.3,0.5-0.3,0.8
		c0,0.4,0.1,0.6,0.3,0.8c0.2,0.2,0.5,0.3,0.9,0.3c0.4,0,0.7-0.1,0.9-0.3s0.3-0.5,0.3-0.8c0-0.4-0.1-0.6-0.3-0.8s-0.5-0.3-0.9-0.3
		C50.3,177,50,177.1,49.8,177.3z"/>
	<path class="st3" d="M59,172.8c0.4,0.4,0.7,1,0.7,1.8c0,0.7-0.2,1.3-0.7,1.8s-1,0.7-1.8,0.7s-1.3-0.2-1.8-0.7
		c-0.4-0.4-0.7-1-0.7-1.8c0-0.7,0.2-1.3,0.7-1.8c0.4-0.4,1-0.7,1.8-0.7S58.5,172.3,59,172.8z M56.7,173.8c-0.1,0.2-0.2,0.4-0.2,0.7
		c0,0.3,0.1,0.5,0.2,0.7c0.1,0.2,0.3,0.3,0.6,0.3c0.3,0,0.4-0.1,0.6-0.3c0.1-0.2,0.2-0.4,0.2-0.7c0-0.3-0.1-0.5-0.2-0.7
		c-0.1-0.2-0.3-0.3-0.6-0.3C57,173.6,56.8,173.7,56.7,173.8z M62.7,172.2h1.7l-6,8.6h-1.7L62.7,172.2z M65.5,176.7
		c0.4,0.4,0.7,1,0.7,1.8c0,0.7-0.2,1.3-0.7,1.8s-1,0.7-1.8,0.7s-1.3-0.2-1.8-0.7c-0.4-0.4-0.7-1-0.7-1.8c0-0.7,0.2-1.3,0.7-1.8
		c0.4-0.4,1-0.7,1.8-0.7S65.1,176.3,65.5,176.7z M63.2,177.8c-0.1,0.2-0.2,0.4-0.2,0.7c0,0.3,0.1,0.5,0.2,0.7s0.3,0.3,0.6,0.3
		c0.3,0,0.4-0.1,0.6-0.3c0.1-0.2,0.2-0.4,0.2-0.7c0-0.3-0.1-0.5-0.2-0.7c-0.1-0.2-0.3-0.3-0.6-0.3C63.5,177.5,63.3,177.6,63.2,177.8
		z"/>
</g>
</svg>
